EESchema Schematic File Version 4
EELAYER 30 0
EELAYER END
$Descr A4 11693 8268
encoding utf-8
Sheet 1 1
Title ""
Date ""
Rev ""
Comp ""
Comment1 ""
Comment2 ""
Comment3 ""
Comment4 ""
$EndDescr
$Comp
L Connector_Generic:Conn_01x04 J1
U 1 1 5FC79B20
P 6500 2800
F 0 "J1" H 6418 2375 50  0000 C CNN
F 1 "Conn_01x04" H 6418 2466 50  0000 C CNN
F 2 "Connector_PinHeader_1.27mm:PinHeader_1x04_P1.27mm_Vertical" H 6500 2800 50  0001 C CNN
F 3 "~" H 6500 2800 50  0001 C CNN
F 4 "SAM15266-ND" H 6500 2800 50  0001 C CNN "Digi-key_PN"
	1    6500 2800
	-1   0    0    1   
$EndComp
$Comp
L Connector_Generic:Conn_01x10 J2
U 1 1 5FC6E1D4
P 7350 3000
F 0 "J2" H 7430 2992 50  0000 L CNN
F 1 "Conn_01x10" H 7430 2901 50  0000 L CNN
F 2 "magne_footprints:FH34SRJ-10S-0.5SH(50)" H 7350 3000 50  0001 C CNN
F 3 "~" H 7350 3000 50  0001 C CNN
F 4 "HFT410CT-ND" H 7350 3000 50  0001 C CNN "Digi-key_PN"
	1    7350 3000
	1    0    0    -1  
$EndComp
Wire Wire Line
	6700 2600 7150 2600
Wire Wire Line
	6700 2700 6800 2700
Wire Wire Line
	6700 2800 7000 2800
Wire Wire Line
	6700 2900 7150 2900
$Comp
L power:GND #PWR0101
U 1 1 5FC7C0D7
P 7000 3600
F 0 "#PWR0101" H 7000 3350 50  0001 C CNN
F 1 "GND" H 7005 3427 50  0000 C CNN
F 2 "" H 7000 3600 50  0001 C CNN
F 3 "" H 7000 3600 50  0001 C CNN
	1    7000 3600
	1    0    0    -1  
$EndComp
$Comp
L power:VDD #PWR0102
U 1 1 5FC7E163
P 6800 3600
F 0 "#PWR0102" H 6800 3450 50  0001 C CNN
F 1 "VDD" H 6815 3773 50  0000 C CNN
F 2 "" H 6800 3600 50  0001 C CNN
F 3 "" H 6800 3600 50  0001 C CNN
	1    6800 3600
	-1   0    0    1   
$EndComp
Connection ~ 6800 2700
Wire Wire Line
	6800 2700 7150 2700
Connection ~ 7000 2800
Wire Wire Line
	7000 2800 7150 2800
Wire Wire Line
	6800 2700 6800 3600
Wire Wire Line
	7000 2800 7000 3600
$EndSCHEMATC
