(kicad_pcb (version 20171130) (host pcbnew "(5.1.6)-1")

  (general
    (thickness 1.6)
    (drawings 8)
    (tracks 23)
    (zones 0)
    (modules 2)
    (nets 11)
  )

  (page A4)
  (layers
    (0 F.Cu signal)
    (31 B.Cu signal)
    (32 B.Adhes user)
    (33 F.Adhes user)
    (34 B.Paste user)
    (35 F.Paste user)
    (36 B.SilkS user)
    (37 F.SilkS user)
    (38 B.Mask user)
    (39 F.Mask user)
    (40 Dwgs.User user)
    (41 Cmts.User user)
    (42 Eco1.User user)
    (43 Eco2.User user)
    (44 Edge.Cuts user)
    (45 Margin user)
    (46 B.CrtYd user)
    (47 F.CrtYd user)
    (48 B.Fab user)
    (49 F.Fab user)
  )

  (setup
    (last_trace_width 0.2)
    (trace_clearance 0.15)
    (zone_clearance 0.2)
    (zone_45_only no)
    (trace_min 0.2)
    (via_size 0.8)
    (via_drill 0.4)
    (via_min_size 0.4)
    (via_min_drill 0.3)
    (uvia_size 0.3)
    (uvia_drill 0.1)
    (uvias_allowed no)
    (uvia_min_size 0.2)
    (uvia_min_drill 0.1)
    (edge_width 0.05)
    (segment_width 0.2)
    (pcb_text_width 0.3)
    (pcb_text_size 1.5 1.5)
    (mod_edge_width 0.12)
    (mod_text_size 1 1)
    (mod_text_width 0.15)
    (pad_size 1.524 1.524)
    (pad_drill 0.762)
    (pad_to_mask_clearance 0.05)
    (aux_axis_origin 0 0)
    (visible_elements 7FFFFFFF)
    (pcbplotparams
      (layerselection 0x01200_7fffffff)
      (usegerberextensions false)
      (usegerberattributes true)
      (usegerberadvancedattributes true)
      (creategerberjobfile true)
      (excludeedgelayer true)
      (linewidth 0.100000)
      (plotframeref false)
      (viasonmask false)
      (mode 1)
      (useauxorigin false)
      (hpglpennumber 1)
      (hpglpenspeed 20)
      (hpglpendiameter 15.000000)
      (psnegative false)
      (psa4output false)
      (plotreference true)
      (plotvalue true)
      (plotinvisibletext false)
      (padsonsilk false)
      (subtractmaskfromsilk false)
      (outputformat 1)
      (mirror false)
      (drillshape 0)
      (scaleselection 1)
      (outputdirectory "Gerbers/"))
  )

  (net 0 "")
  (net 1 "Net-(J1-Pad4)")
  (net 2 "Net-(J1-Pad1)")
  (net 3 "Net-(J2-Pad10)")
  (net 4 "Net-(J2-Pad9)")
  (net 5 "Net-(J2-Pad8)")
  (net 6 "Net-(J2-Pad7)")
  (net 7 "Net-(J2-Pad6)")
  (net 8 "Net-(J2-Pad5)")
  (net 9 VDD)
  (net 10 GND)

  (net_class Default "This is the default net class."
    (clearance 0.15)
    (trace_width 0.2)
    (via_dia 0.8)
    (via_drill 0.4)
    (uvia_dia 0.3)
    (uvia_drill 0.1)
    (add_net GND)
    (add_net "Net-(J1-Pad1)")
    (add_net "Net-(J1-Pad4)")
    (add_net "Net-(J2-Pad10)")
    (add_net "Net-(J2-Pad5)")
    (add_net "Net-(J2-Pad6)")
    (add_net "Net-(J2-Pad7)")
    (add_net "Net-(J2-Pad8)")
    (add_net "Net-(J2-Pad9)")
    (add_net VDD)
  )

  (module Connector_PinHeader_1.27mm:PinHeader_1x04_P1.27mm_Vertical (layer B.Cu) (tedit 59FED6E3) (tstamp 5F7E547A)
    (at 113.792 81.026)
    (descr "Through hole straight pin header, 1x04, 1.27mm pitch, single row")
    (tags "Through hole pin header THT 1x04 1.27mm single row")
    (path /5FC79B20)
    (fp_text reference J1 (at 0 1.695) (layer B.SilkS)
      (effects (font (size 1 1) (thickness 0.15)) (justify mirror))
    )
    (fp_text value Conn_01x04 (at -4.826 -5.588) (layer B.Fab)
      (effects (font (size 1 1) (thickness 0.15)) (justify mirror))
    )
    (fp_line (start -0.525 0.635) (end 1.05 0.635) (layer B.Fab) (width 0.1))
    (fp_line (start 1.05 0.635) (end 1.05 -4.445) (layer B.Fab) (width 0.1))
    (fp_line (start 1.05 -4.445) (end -1.05 -4.445) (layer B.Fab) (width 0.1))
    (fp_line (start -1.05 -4.445) (end -1.05 0.11) (layer B.Fab) (width 0.1))
    (fp_line (start -1.05 0.11) (end -0.525 0.635) (layer B.Fab) (width 0.1))
    (fp_line (start -1.11 -4.505) (end -0.30753 -4.505) (layer B.SilkS) (width 0.12))
    (fp_line (start 0.30753 -4.505) (end 1.11 -4.505) (layer B.SilkS) (width 0.12))
    (fp_line (start -1.11 -0.76) (end -1.11 -4.505) (layer B.SilkS) (width 0.12))
    (fp_line (start 1.11 -0.76) (end 1.11 -4.505) (layer B.SilkS) (width 0.12))
    (fp_line (start -1.11 -0.76) (end -0.563471 -0.76) (layer B.SilkS) (width 0.12))
    (fp_line (start 0.563471 -0.76) (end 1.11 -0.76) (layer B.SilkS) (width 0.12))
    (fp_line (start -1.11 0) (end -1.11 0.76) (layer B.SilkS) (width 0.12))
    (fp_line (start -1.11 0.76) (end 0 0.76) (layer B.SilkS) (width 0.12))
    (fp_line (start -1.55 1.15) (end -1.55 -4.95) (layer B.CrtYd) (width 0.05))
    (fp_line (start -1.55 -4.95) (end 1.55 -4.95) (layer B.CrtYd) (width 0.05))
    (fp_line (start 1.55 -4.95) (end 1.55 1.15) (layer B.CrtYd) (width 0.05))
    (fp_line (start 1.55 1.15) (end -1.55 1.15) (layer B.CrtYd) (width 0.05))
    (pad 4 thru_hole oval (at 0 -3.81) (size 1 1) (drill 0.65) (layers *.Cu *.Mask)
      (net 1 "Net-(J1-Pad4)"))
    (pad 3 thru_hole oval (at 0 -2.54) (size 1 1) (drill 0.65) (layers *.Cu *.Mask)
      (net 9 VDD))
    (pad 2 thru_hole oval (at 0 -1.27) (size 1 1) (drill 0.65) (layers *.Cu *.Mask)
      (net 10 GND))
    (pad 1 thru_hole rect (at 0 0) (size 1 1) (drill 0.65) (layers *.Cu *.Mask)
      (net 2 "Net-(J1-Pad1)"))
    (model ${KISYS3DMOD}/Connector_PinHeader_1.27mm.3dshapes/PinHeader_1x04_P1.27mm_Vertical.wrl
      (at (xyz 0 0 0))
      (scale (xyz 1 1 1))
      (rotate (xyz 0 0 0))
    )
  )

  (module "magne_footprints:FH34SRJ-10S-0.5SH(50)" (layer F.Cu) (tedit 5EE8B269) (tstamp 5F7E4FE8)
    (at 118.949223 78.309223 135)
    (path /5FC6E1D4)
    (attr smd)
    (fp_text reference J2 (at 0 -1.778 135) (layer F.SilkS)
      (effects (font (size 1 1) (thickness 0.15)))
    )
    (fp_text value Conn_01x10 (at 0 2.7 135) (layer F.Fab)
      (effects (font (size 1 1) (thickness 0.15)))
    )
    (fp_line (start -2.5 -0.58) (end 2.5 -0.58) (layer F.SilkS) (width 0.12))
    (fp_line (start -2.5 0.58) (end 2.5 0.58) (layer F.SilkS) (width 0.12))
    (fp_line (start -2.5 0.58) (end -2.5 3.02) (layer F.SilkS) (width 0.12))
    (fp_line (start 2.5 0.58) (end 2.5 3.02) (layer F.SilkS) (width 0.12))
    (fp_line (start -2.5 3.02) (end -3.809999 3.02) (layer F.SilkS) (width 0.12))
    (fp_line (start 2.5 3.02) (end 3.809999 3.02) (layer F.SilkS) (width 0.12))
    (fp_line (start -3.809999 3.02) (end -3.809999 1.86) (layer F.SilkS) (width 0.12))
    (fp_line (start 3.809999 3.02) (end 3.809999 1.86) (layer F.SilkS) (width 0.12))
    (fp_line (start -3.809999 1.86) (end -2.5 1.86) (layer F.SilkS) (width 0.12))
    (fp_line (start 3.809999 1.86) (end 2.5 1.86) (layer F.SilkS) (width 0.12))
    (fp_line (start -2.5 1.86) (end -2.5 -0.58) (layer F.SilkS) (width 0.12))
    (fp_line (start 2.5 1.86) (end 2.5 -0.58) (layer F.SilkS) (width 0.12))
    (fp_line (start -4.05 -0.8) (end 4.05 -0.8) (layer F.CrtYd) (width 0.05))
    (fp_line (start 4.05 -0.8) (end 4.05 3.25) (layer F.CrtYd) (width 0.05))
    (fp_line (start -4.05 3.25) (end 4.05 3.25) (layer F.CrtYd) (width 0.05))
    (fp_line (start -4.05 -0.8) (end -4.05 3.25) (layer F.CrtYd) (width 0.05))
    (pad 0 smd rect (at 3.274999 2.5 135) (size 0.5 0.8) (layers F.Cu F.Paste F.Mask))
    (pad 0 smd rect (at -3.274999 2.5 135) (size 0.5 0.8) (layers F.Cu F.Paste F.Mask))
    (pad 10 smd rect (at 2.25 0 135) (size 0.3 1.5) (layers F.Cu F.Paste F.Mask)
      (net 3 "Net-(J2-Pad10)"))
    (pad 9 smd rect (at 1.75 0 135) (size 0.3 1.5) (layers F.Cu F.Paste F.Mask)
      (net 4 "Net-(J2-Pad9)"))
    (pad 8 smd rect (at 1.25 0 135) (size 0.3 1.5) (layers F.Cu F.Paste F.Mask)
      (net 5 "Net-(J2-Pad8)"))
    (pad 7 smd rect (at 0.75 0 135) (size 0.3 1.5) (layers F.Cu F.Paste F.Mask)
      (net 6 "Net-(J2-Pad7)"))
    (pad 6 smd rect (at 0.25 0 135) (size 0.3 1.5) (layers F.Cu F.Paste F.Mask)
      (net 7 "Net-(J2-Pad6)"))
    (pad 5 smd rect (at -0.25 0 135) (size 0.3 1.5) (layers F.Cu F.Paste F.Mask)
      (net 8 "Net-(J2-Pad5)"))
    (pad 4 smd rect (at -0.75 0 135) (size 0.3 1.5) (layers F.Cu F.Paste F.Mask)
      (net 2 "Net-(J1-Pad1)"))
    (pad 3 smd rect (at -1.25 0 135) (size 0.3 1.5) (layers F.Cu F.Paste F.Mask)
      (net 10 GND))
    (pad 2 smd rect (at -1.75 0 135) (size 0.3 1.5) (layers F.Cu F.Paste F.Mask)
      (net 9 VDD))
    (pad 1 smd rect (at -2.25 0 135) (size 0.3 1.5) (layers F.Cu F.Paste F.Mask)
      (net 1 "Net-(J1-Pad4)"))
    (model "C:/Users/magla/OneDrive - University of Bergen/RD53/kicad/Libraries/magne-custom/models/FH34SRJ-10S-0.5SH.wrl"
      (offset (xyz 0 -1.1 0))
      (scale (xyz 0.394 0.394 0.394))
      (rotate (xyz 0 0 0))
    )
  )

  (gr_text "Remove 1mm of \nmaterial from back" (at 113.665 70.612) (layer Cmts.User)
    (effects (font (size 1 1) (thickness 0.15)))
  )
  (gr_poly (pts (xy 115.824 81.788) (xy 112.522 81.788) (xy 112.522 76.2) (xy 115.824 74.422)) (layer Cmts.User) (width 0.1))
  (gr_line (start 130.048 76.2) (end 130.048 81.788) (layer Edge.Cuts) (width 0.05) (tstamp 5F7E579D))
  (gr_line (start 121.412 76.2) (end 130.048 76.2) (layer Edge.Cuts) (width 0.05))
  (gr_line (start 118.364 73.152) (end 121.412 76.2) (layer Edge.Cuts) (width 0.05))
  (gr_line (start 112.522 76.2) (end 118.364 73.152) (layer Edge.Cuts) (width 0.05))
  (gr_line (start 112.522 81.788) (end 130.048 81.788) (layer Edge.Cuts) (width 0.05))
  (gr_line (start 112.522 76.2) (end 112.522 81.788) (layer Edge.Cuts) (width 0.05))

  (segment (start 115.1128 77.216) (end 113.792 77.216) (width 0.2) (layer F.Cu) (net 1))
  (segment (start 121.09602 79.344406) (end 121.09602 77.91602) (width 0.2) (layer F.Cu) (net 1))
  (segment (start 120.540213 79.900213) (end 121.09602 79.344406) (width 0.2) (layer F.Cu) (net 1))
  (segment (start 118.171977 74.991979) (end 117.336821 74.991979) (width 0.2) (layer F.Cu) (net 1))
  (segment (start 121.09602 77.91602) (end 118.171977 74.991979) (width 0.2) (layer F.Cu) (net 1))
  (segment (start 117.336821 74.991979) (end 115.1128 77.216) (width 0.2) (layer F.Cu) (net 1))
  (segment (start 114.2492 80.5688) (end 113.792 81.026) (width 0.2) (layer F.Cu) (net 2))
  (segment (start 117.7544 80.5688) (end 114.2492 80.5688) (width 0.2) (layer F.Cu) (net 2))
  (segment (start 119.479553 78.839553) (end 119.479553 78.843647) (width 0.2) (layer F.Cu) (net 2))
  (segment (start 119.479553 78.843647) (end 117.7544 80.5688) (width 0.2) (layer F.Cu) (net 2))
  (segment (start 120.18666 79.54666) (end 120.746009 78.987311) (width 0.2) (layer F.Cu) (net 9))
  (segment (start 120.746009 78.987311) (end 120.746009 78.061) (width 0.2) (layer F.Cu) (net 9))
  (segment (start 117.4818 75.34199) (end 114.33779 78.486) (width 0.2) (layer F.Cu) (net 9))
  (segment (start 114.33779 78.486) (end 113.792 78.486) (width 0.2) (layer F.Cu) (net 9))
  (segment (start 118.026998 75.34199) (end 117.4818 75.34199) (width 0.2) (layer F.Cu) (net 9))
  (segment (start 120.746009 78.061) (end 118.026998 75.34199) (width 0.2) (layer F.Cu) (net 9))
  (segment (start 117.626779 75.692001) (end 114.6556 78.66318) (width 0.2) (layer F.Cu) (net 10))
  (segment (start 114.6556 78.8924) (end 113.792 79.756) (width 0.2) (layer F.Cu) (net 10))
  (segment (start 120.395998 78.20598) (end 117.88202 75.692001) (width 0.2) (layer F.Cu) (net 10))
  (segment (start 119.833106 79.193106) (end 120.395998 78.630214) (width 0.2) (layer F.Cu) (net 10))
  (segment (start 117.88202 75.692001) (end 117.626779 75.692001) (width 0.2) (layer F.Cu) (net 10))
  (segment (start 120.395998 78.630214) (end 120.395998 78.20598) (width 0.2) (layer F.Cu) (net 10))
  (segment (start 114.6556 78.66318) (end 114.6556 78.8924) (width 0.2) (layer F.Cu) (net 10))

  (zone (net 0) (net_name "") (layer F.Cu) (tstamp 5FD3696C) (hatch edge 0.508)
    (connect_pads (clearance 0.2))
    (min_thickness 0.254)
    (fill yes (arc_segments 32) (thermal_gap 0.508) (thermal_bridge_width 0.508))
    (polygon
      (pts
        (xy 130.8608 83.7692) (xy 109.7788 83.7692) (xy 109.7788 72.4916) (xy 130.8608 72.4916)
      )
    )
    (filled_polygon
      (pts
        (xy 117.709254 74.099405) (xy 117.668391 74.149198) (xy 117.638027 74.206005) (xy 117.619329 74.267645) (xy 117.613015 74.331748)
        (xy 117.619329 74.395851) (xy 117.638027 74.457491) (xy 117.668391 74.514298) (xy 117.709254 74.564091) (xy 117.710142 74.564979)
        (xy 117.357788 74.564979) (xy 117.336821 74.562914) (xy 117.315854 74.564979) (xy 117.315843 74.564979) (xy 117.253114 74.571157)
        (xy 117.191358 74.589891) (xy 117.172624 74.595574) (xy 117.098444 74.635223) (xy 117.04972 74.675211) (xy 117.049716 74.675215)
        (xy 117.033426 74.688584) (xy 117.020057 74.704874) (xy 114.935932 76.789) (xy 114.501311 76.789) (xy 114.434372 76.688819)
        (xy 114.319181 76.573628) (xy 114.183731 76.483123) (xy 114.033227 76.420782) (xy 113.873452 76.389) (xy 113.710548 76.389)
        (xy 113.550773 76.420782) (xy 113.400269 76.483123) (xy 113.264819 76.573628) (xy 113.149628 76.688819) (xy 113.059123 76.824269)
        (xy 112.996782 76.974773) (xy 112.965 77.134548) (xy 112.965 77.297452) (xy 112.996782 77.457227) (xy 113.059123 77.607731)
        (xy 113.149628 77.743181) (xy 113.257447 77.851) (xy 113.149628 77.958819) (xy 113.059123 78.094269) (xy 112.996782 78.244773)
        (xy 112.965 78.404548) (xy 112.965 78.567452) (xy 112.996782 78.727227) (xy 113.059123 78.877731) (xy 113.149628 79.013181)
        (xy 113.257447 79.121) (xy 113.149628 79.228819) (xy 113.059123 79.364269) (xy 112.996782 79.514773) (xy 112.965 79.674548)
        (xy 112.965 79.837452) (xy 112.996782 79.997227) (xy 113.059123 80.147731) (xy 113.124094 80.244967) (xy 113.10945 80.252794)
        (xy 113.059657 80.293657) (xy 113.018794 80.34345) (xy 112.98843 80.400257) (xy 112.969732 80.461897) (xy 112.963418 80.526)
        (xy 112.963418 81.436) (xy 112.874 81.436) (xy 112.874 76.413376) (xy 118.14577 73.662889)
      )
    )
    (filled_polygon
      (pts
        (xy 121.15087 76.436673) (xy 121.161894 76.450106) (xy 121.175325 76.461128) (xy 121.215492 76.494093) (xy 121.245734 76.510257)
        (xy 121.276644 76.526779) (xy 121.342996 76.546907) (xy 121.394708 76.552) (xy 121.394711 76.552) (xy 121.412 76.553703)
        (xy 121.429289 76.552) (xy 129.696 76.552) (xy 129.696001 81.436) (xy 114.620582 81.436) (xy 114.620582 80.9958)
        (xy 117.733433 80.9958) (xy 117.7544 80.997865) (xy 117.775367 80.9958) (xy 117.775378 80.9958) (xy 117.838107 80.989622)
        (xy 117.918596 80.965205) (xy 117.992776 80.925555) (xy 118.057795 80.872195) (xy 118.071168 80.8559) (xy 119.020861 79.906207)
        (xy 119.176499 80.061845) (xy 119.226292 80.102708) (xy 119.259375 80.120391) (xy 119.277058 80.153474) (xy 119.317921 80.203267)
        (xy 119.530053 80.415399) (xy 119.579846 80.456262) (xy 119.612928 80.473945) (xy 119.630611 80.507027) (xy 119.671474 80.55682)
        (xy 119.883606 80.768952) (xy 119.933399 80.809815) (xy 119.990206 80.840179) (xy 120.051846 80.858877) (xy 120.115949 80.865191)
        (xy 120.180052 80.858877) (xy 120.241692 80.840179) (xy 120.298499 80.809815) (xy 120.348292 80.768952) (xy 121.408952 79.708292)
        (xy 121.449815 79.658499) (xy 121.480179 79.601692) (xy 121.498877 79.540052) (xy 121.505191 79.475949) (xy 121.50449 79.468831)
        (xy 121.516842 79.428113) (xy 121.52302 79.365384) (xy 121.52302 79.365373) (xy 121.525085 79.344406) (xy 121.52302 79.323439)
        (xy 121.52302 78.963296) (xy 122.244563 78.963296) (xy 122.250877 79.027399) (xy 122.269575 79.089039) (xy 122.299939 79.145846)
        (xy 122.340802 79.195639) (xy 122.694355 79.549192) (xy 122.744148 79.590055) (xy 122.800955 79.620419) (xy 122.862595 79.639117)
        (xy 122.926698 79.645431) (xy 122.990801 79.639117) (xy 123.052441 79.620419) (xy 123.109248 79.590055) (xy 123.159041 79.549192)
        (xy 123.724726 78.983507) (xy 123.765589 78.933714) (xy 123.795953 78.876907) (xy 123.814651 78.815267) (xy 123.820965 78.751164)
        (xy 123.814651 78.687061) (xy 123.795953 78.625421) (xy 123.765589 78.568614) (xy 123.724726 78.518821) (xy 123.371173 78.165268)
        (xy 123.32138 78.124405) (xy 123.264573 78.094041) (xy 123.202933 78.075343) (xy 123.13883 78.069029) (xy 123.074727 78.075343)
        (xy 123.013087 78.094041) (xy 122.95628 78.124405) (xy 122.906487 78.165268) (xy 122.340802 78.730953) (xy 122.299939 78.780746)
        (xy 122.269575 78.837553) (xy 122.250877 78.899193) (xy 122.244563 78.963296) (xy 121.52302 78.963296) (xy 121.52302 77.936986)
        (xy 121.525085 77.916019) (xy 121.52302 77.895052) (xy 121.52302 77.895042) (xy 121.516842 77.832313) (xy 121.492425 77.751824)
        (xy 121.466994 77.704245) (xy 121.452775 77.677643) (xy 121.412788 77.628919) (xy 121.412784 77.628915) (xy 121.399415 77.612625)
        (xy 121.383125 77.599256) (xy 118.614502 74.830635) (xy 119.079667 74.36547)
      )
    )
    (filled_polygon
      (pts
        (xy 116.701626 77.586972) (xy 116.751419 77.627835) (xy 116.784501 77.645518) (xy 116.802184 77.6786) (xy 116.843047 77.728393)
        (xy 117.055179 77.940525) (xy 117.104972 77.981388) (xy 117.138055 77.999071) (xy 117.155738 78.032154) (xy 117.196601 78.081947)
        (xy 117.408733 78.294079) (xy 117.458526 78.334942) (xy 117.491608 78.352625) (xy 117.509291 78.385707) (xy 117.550154 78.4355)
        (xy 117.762286 78.647632) (xy 117.812079 78.688495) (xy 117.845161 78.706178) (xy 117.862844 78.73926) (xy 117.903707 78.789053)
        (xy 118.115839 79.001185) (xy 118.165632 79.042048) (xy 118.198715 79.059731) (xy 118.216398 79.092814) (xy 118.257261 79.142607)
        (xy 118.416993 79.302339) (xy 117.577532 80.1418) (xy 114.527334 80.1418) (xy 114.587218 79.997227) (xy 114.619 79.837452)
        (xy 114.619 79.674548) (xy 114.595493 79.556375) (xy 114.942705 79.209164) (xy 114.958995 79.195795) (xy 114.972364 79.179505)
        (xy 114.972368 79.179501) (xy 115.012355 79.130777) (xy 115.038414 79.082023) (xy 115.052005 79.056596) (xy 115.076422 78.976107)
        (xy 115.0826 78.913377) (xy 115.0826 78.913367) (xy 115.084665 78.8924) (xy 115.0826 78.871433) (xy 115.0826 78.840048)
        (xy 116.518651 77.403997)
      )
    )
    (filled_polygon
      (pts
        (xy 114.347737 77.872184) (xy 114.326553 77.851) (xy 114.434372 77.743181) (xy 114.501311 77.643) (xy 114.576922 77.643)
      )
    )
  )
)
