M48
; DRILL file {KiCad (5.1.6)-1} date 12/11/20 13:43:25
; FORMAT={-:-/ absolute / inch / decimal}
; #@! TF.CreationDate,2020-12-11T13:43:25+01:00
; #@! TF.GenerationSoftware,Kicad,Pcbnew,(5.1.6)-1
FMAT,2
INCH
T1C0.0256
%
G90
G05
T1
X4.48Y-3.04
X4.48Y-3.09
X4.48Y-3.14
X4.48Y-3.19
T0
M30
